PORTFOLIO
…
The regression model predicts the carat value when numeric predictors are set to their mean and categorical variables are at their reference levels. Positive coefficients, like for x_poly_2 (0.0925), suggest a strong nonlinear relationship, where increasing the predictor results in a higher predicted carat value. Negative coefficients, like for clarity_SI2 (-0.00364) or cut_Premium (-0.00437), indicate that these categories have a negative influence on the predicted carat compared to the baseline category.

3.5.1 Extract coefficients

tidy(multi_fit) 

# A tibble: 22 × 5
   term           estimate std.error statistic  p.value
   <chr>             <dbl>     <dbl>     <dbl>    <dbl>
 1 (Intercept)    0.798     0.000113  7046.    0       
 2 depth          0.0292    0.000133   219.    0       
 3 table          0.00664   0.000151    43.9   0       
 4 x_poly_1       0.463     0.000130  3550.    0       
 5 x_poly_2       0.0925    0.000116   798.    0       
 6 cut_Good       0.000102  0.000225     0.454 6.49e- 1
 7 cut_Very.Good  0.00118   0.000313     3.79  1.53e- 4
 8 cut_Premium   -0.00437   0.000327   -13.3   1.64e-40
 9 cut_Ideal     -0.000641  0.000381    -1.68  9.23e- 2
10 color_E       -0.000203  0.000160    -1.26  2.06e- 1
# ℹ 12 more rows
…
